BST 260: Introduction to Data Science – Association Not Causation
…
Spurious correlation

res <- sim_data |>  
  group_by(group) |>  
  summarize(r = cor(x, y)) |>  
  arrange(desc(r)) 
res 

# A tibble: 1,000,000 × 2
    group     r
    <int> <dbl>
 1 710822 0.805
 2 226015 0.792
 3 841121 0.783
 4 838373 0.776
 5 131974 0.774
 6 372183 0.770
 7 572463 0.767
 8 924637 0.766
 9 804367 0.760
10 544498 0.759
# ℹ 999,990 more rows
…
